%YAML 1.1
%TAG !u! tag:unity3d.com,2011:
--- !u!1045 &1
EditorBuildSettings:
  m_ObjectHideFlags: 0
  serializedVersion: 2
  m_Scenes:
  - enabled: 1
    path: Assets/Menu.unity
    guid: ce87df49208741e4ebecb980034f1f0c
  - enabled: 1
    path: Assets/Game.unity
    guid: d9533427ce8fbee41900d09d76a257ec
